<svg xmlns="http://www.w3.org/2000/svg" width="27" height="38" viewBox="0 0 27 38">
    <g fill="#EEC5C5" fill-rule="evenodd">
        <path d="M9 21h9v17s-2.921-3.816-4.5-3.816C11.921 34.184 9 38 9 38V21z"/>
        <path stroke="#FFF" d="M13.5 23.302l-3.235 2.272-1.666-3.585-3.938.35.35-3.938-3.585-1.666L3.698 13.5l-2.272-3.235L5.01 8.599 4.66 4.66l3.938.35 1.666-3.585L13.5 3.698l3.235-2.272 1.666 3.585 3.938-.35-.35 3.938 3.585 1.666-2.272 3.235 2.272 3.235-3.585 1.666.35 3.938-3.938-.35-1.666 3.585z"/>
    </g>
</svg>
