<svg xmlns="http://www.w3.org/2000/svg" width="34" height="34" viewBox="0 0 34 34">
    <g fill="none" fill-rule="evenodd" transform="translate(3 3)">
        <circle cx="14" cy="14" r="15.5" stroke="#4B95C7" stroke-width="3"/>
        <circle cx="12.25" cy="12.25" r="5.25" stroke="#FFF" stroke-width="2"/>
        <path stroke="#FFF" stroke-linecap="round" stroke-linejoin="round" stroke-width="3" d="M16.459 16.768l3.954 3.954"/>
    </g>
</svg>
